HW2/multiplexer.vcd
$date
	Thu Sep 20 23:51:21 2018
$end
$version
	Icarus Verilog
$end
$timescale
	1ps
$end
$scope module testMultiplexer $end
$var wire 1 ! out2 $end
$var wire 1 " out $end
$var reg 1 # in0 $end
$var reg 1 $ in1 $end
$var reg 1 % in2 $end
$var reg 1 & in3 $end
$var reg 1 ' s0 $end
$var reg 1 ( s1 $end
$var integer 32 ) i [31:0] $end
$scope module mux $end
$var wire 1 ' address0 $end
$var wire 1 ( address1 $end
$var wire 1 # in0 $end
$var wire 1 $ in1 $end
$var wire 1 % in2 $end
$var wire 1 & in3 $end
$var wire 1 " out $end
$var wire 4 * inputs [3:0] $end
$var wire 2 + address [1:0] $end
$upscope $end
$scope module my_mux $end
$var wire 1 , goto_0 $end
$var wire 1 - goto_1 $end
$var wire 1 . goto_2 $end
$var wire 1 / goto_3 $end
$var wire 1 # in0 $end
$var wire 1 $ in1 $end
$var wire 1 % in2 $end
$var wire 1 & in3 $end
$var wire 1 0 ns0 $end
$var wire 1 1 ns1 $end
$var wire 1 2 or0 $end
$var wire 1 3 or1 $end
$var wire 1 ! out2 $end
$var wire 1 ' s0 $end
$var wire 1 ( s1 $end
$var wire 1 4 tc0 $end
$var wire 1 5 tc1 $end
$var wire 1 6 tc2 $end
$var wire 1 7 tc3 $end
$upscope $end
$upscope $end
$enddefinitions $end
#0
$dumpvars
x7
x6
x5
x4
x3
x2
x1
x0
x/
x.
x-
x,
b0 +
b0 *
b0 )
0(
0'
0&
0%
0$
0#
0"
x!
$end
#50000
11
10
07
06
05
04
0/
0.
0-
#100000
1,
03
02
#150000
0!
#500000
1"
b1 *
1#
b1 )
#550000
14
#600000
12
#650000
1!
#1000000
1$
0"
b10 *
0#
b10 )
#1050000
04
#1100000
02
#1150000
0!
#1500000
1"
b11 *
1#
b11 )
#1550000
14
#1600000
12
#1650000
1!
#2000000
1%
0$
0"
b100 *
0#
b100 )
#2050000
04
#2100000
02
#2150000
0!
#2500000
1"
b101 *
1#
b101 )
#2550000
14
#2600000
12
#2650000
1!
#3000000
1$
0"
b110 *
0#
b110 )
#3050000
04
#3100000
02
#3150000
0!
#3500000
1"
b111 *
1#
b111 )
#3550000
14
#3600000
12
#3650000
1!
#4000000
1&
0%
0$
0"
b1000 *
0#
b1000 )
#4050000
04
#4100000
02
#4150000
0!
#4500000
1"
b1001 *
1#
b1001 )
#4550000
14
#4600000
12
#4650000
1!
#5000000
1$
0"
b1010 *
0#
b1010 )
#5050000
04
#5100000
02
#5150000
0!
#5500000
1"
b1011 *
1#
b1011 )
#5550000
14
#5600000
12
#5650000
1!
#6000000
1%
0$
0"
b1100 *
0#
b1100 )
#6050000
04
#6100000
02
#6150000
0!
#6500000
1"
b1101 *
1#
b1101 )
#6550000
14
#6600000
12
#6650000
1!
#7000000
1$
0"
b1110 *
0#
b1110 )
#7050000
04
#7100000
02
#7150000
0!
#7500000
1"
b1111 *
1#
b1111 )
#7550000
14
#7600000
12
#7650000
1!
#8000000
b1 +
1'
0&
0%
0$
0"
b0 *
0#
b10000 )
#8050000
00
1-
04
#8100000
0,
02
#8150000
0!
#8500000
b1 *
1#
b10001 )
#9000000
1"
1$
b10 *
0#
b10010 )
#9050000
15
#9100000
12
#9150000
1!
#9500000
b11 *
1#
b10011 )
#10000000
1%
0"
0$
b100 *
0#
b10100 )
#10050000
05
#10100000
02
#10150000
0!
#10500000
b101 *
1#
b10101 )
#11000000
1"
1$
b110 *
0#
b10110 )
#11050000
15
#11100000
12
#11150000
1!
#11500000
b111 *
1#
b10111 )
#12000000
1&
0%
0"
0$
b1000 *
0#
b11000 )
#12050000
05
#12100000
02
#12150000
0!
#12500000
b1001 *
1#
b11001 )
#13000000
1"
1$
b1010 *
0#
b11010 )
#13050000
15
#13100000
12
#13150000
1!
#13500000
b1011 *
1#
b11011 )
#14000000
1%
0"
0$
b1100 *
0#
b11100 )
#14050000
05
#14100000
02
#14150000
0!
#14500000
b1101 *
1#
b11101 )
#15000000
1"
1$
b1110 *
0#
b11110 )
#15050000
15
#15100000
12
#15150000
1!
#15500000
b1111 *
1#
b11111 )
#16000000
1(
b10 +
0'
0&
0%
0"
0$
b0 *
0#
b100000 )
#16050000
01
10
0-
05
#16100000
1.
02
#16150000
0!
#16500000
b1 *
1#
b100001 )
#17000000
1$
b10 *
0#
b100010 )
#17500000
b11 *
1#
b100011 )
#18000000
1"
1%
0$
b100 *
0#
b100100 )
#18050000
16
#18100000
13
#18150000
1!
#18500000
b101 *
1#
b100101 )
#19000000
1$
b110 *
0#
b100110 )
#19500000
b111 *
1#
b100111 )
#20000000
1&
0"
0%
0$
b1000 *
0#
b101000 )
#20050000
06
#20100000
03
#20150000
0!
#20500000
b1001 *
1#
b101001 )
#21000000
1$
b1010 *
0#
b101010 )
#21500000
b1011 *
1#
b101011 )
#22000000
1"
1%
0$
b1100 *
0#
b101100 )
#22050000
16
#22100000
13
#22150000
1!
#22500000
b1101 *
1#
b101101 )
#23000000
1$
b1110 *
0#
b101110 )
#23500000
b1111 *
1#
b101111 )
#24000000
b11 +
1'
0&
0"
0%
0$
b0 *
0#
b110000 )
#24050000
00
1/
06
#24100000
0.
03
#24150000
0!
#24500000
b1 *
1#
b110001 )
#25000000
1$
b10 *
0#
b110010 )
#25500000
b11 *
1#
b110011 )
#26000000
1%
0$
b100 *
0#
b110100 )
#26500000
b101 *
1#
b110101 )
#27000000
1$
b110 *
0#
b110110 )
#27500000
b111 *
1#
b110111 )
#28000000
1"
1&
0%
0$
b1000 *
0#
b111000 )
#28050000
17
#28100000
13
#28150000
1!
#28500000
b1001 *
1#
b111001 )
#29000000
1$
b1010 *
0#
b111010 )
#29500000
b1011 *
1#
b111011 )
#30000000
1%
0$
b1100 *
0#
b111100 )
#30500000
b1101 *
1#
b111101 )
#31000000
1$
b1110 *
0#
b111110 )
#31500000
b1111 *
1#
b111111 )
#32000000
b1000000 )
